hw4/RESULT.vcd
$date
     Apr 04, 2024       02:15:06
$end

$version
 SystemC 2.3.3-Accellera --- Mar 10 2024 04:15:24
$end

$timescale
     1 ps
$end

$scope module SystemC $end
$var wire    1  aaaaa  clk       $end
$var wire    1  aaaab  rst       $end
$var wire   32  aaaac  x [31:0]  $end
$var wire   32  aaaad  y [31:0]  $end
$upscope $end
$enddefinitions  $end

$comment
All initial values are dumped below at time 0 sec = 0 timescale units.
$end

$dumpvars
1aaaaa
0aaaab
b0 aaaac
b0 aaaad
$end

#2500
0aaaaa

#5000
1aaaaa

#7500
0aaaaa

#10000
1aaaaa

#12500
0aaaaa
1aaaab

#15000
1aaaaa
b1 aaaac

#17500
0aaaaa

#20000
1aaaaa
b10 aaaac
b111100001111 aaaad

#22500
0aaaaa

#25000
1aaaaa
b11 aaaac
b10110100101101 aaaad

#27500
0aaaaa

#30000
1aaaaa
b100 aaaac
b101101001011010 aaaad

#32500
0aaaaa

#35000
1aaaaa
b101 aaaac
b1001011010010110 aaaad

#37500
0aaaaa

#40000
1aaaaa
b110 aaaac
b1110000111100001 aaaad

#42500
0aaaaa

#45000
1aaaaa
b111 aaaac
b10011110000111011 aaaad

#47500
0aaaaa

#50000
1aaaaa
b1000 aaaac
b11010010110100100 aaaad

#52500
0aaaaa

#55000
1aaaaa
b1001 aaaac
b100001111000011100 aaaad

#57500
0aaaaa

#60000
1aaaaa
b1010 aaaac
b101010010110100011 aaaad

#62500
0aaaaa

#65000
1aaaaa
b1011 aaaac
b110011110000111001 aaaad

#67500
0aaaaa

#70000
1aaaaa
b1100 aaaac
b111110000111011110 aaaad

#72500
0aaaaa

#75000
1aaaaa
b1101 aaaac
b1001001011010010010 aaaad

#77500
0aaaaa

#80000
1aaaaa
b1110 aaaac
b1010101101001010101 aaaad

#82500
0aaaaa

#85000
1aaaaa
b1111 aaaac
b1100010110100100111 aaaad

#87500
0aaaaa

#90000
1aaaaa
b10000 aaaac
b1110000111100001000 aaaad

#92500
0aaaaa

#95000
1aaaaa
b10001 aaaac
b1111111111111111000 aaaad

#97500
0aaaaa

#100000
1aaaaa
b10010 aaaac
b10001111111111110111 aaaad

#102500
0aaaaa

#105000
1aaaaa
b10011 aaaac
b10011111111111110110 aaaad

#107500
0aaaaa

#110000
1aaaaa
b10100 aaaac
b10101111111111110101 aaaad

#112500
0aaaaa

#115000
1aaaaa
b10101 aaaac
b10111111111111110100 aaaad

#117500
0aaaaa

#120000
1aaaaa
b10110 aaaac
b11001111111111110011 aaaad

#122500
0aaaaa

#125000
1aaaaa
b10111 aaaac
b11011111111111110010 aaaad

#127500
0aaaaa

#130000
1aaaaa
b11000 aaaac
b11101111111111110001 aaaad

#132500
0aaaaa

#135000
1aaaaa
b11001 aaaac
b11111111111111110000 aaaad

#137500
0aaaaa

#140000
1aaaaa
b11010 aaaac
b100001111111111101111 aaaad

#142500
0aaaaa

#145000
1aaaaa
b11011 aaaac
b100011111111111101110 aaaad

#147500
0aaaaa

#150000
1aaaaa
b11100 aaaac
b100101111111111101101 aaaad

#152500
0aaaaa

#155000
1aaaaa
b11101 aaaac
b100111111111111101100 aaaad

#157500
0aaaaa

#160000
1aaaaa
b11110 aaaac
b101001111111111101011 aaaad

#162500
0aaaaa

#165000
1aaaaa
b11111 aaaac
b101011111111111101010 aaaad

#167500
0aaaaa

#170000
1aaaaa
b100000 aaaac
b101101111111111101001 aaaad

#172500
0aaaaa

#175000
1aaaaa
b100001 aaaac
b101111111111111101000 aaaad

#177500
0aaaaa

#180000
1aaaaa
b100010 aaaac
b110001111111111100111 aaaad

#182500
0aaaaa

#185000
1aaaaa
b100011 aaaac
b110011111111111100110 aaaad

#187500
0aaaaa

#190000
1aaaaa
b100100 aaaac
b110101111111111100101 aaaad

#192500
0aaaaa

#195000
1aaaaa
b100101 aaaac
b110111111111111100100 aaaad

#197500
0aaaaa

#200000
1aaaaa
b100110 aaaac
b111001111111111100011 aaaad

#202500
0aaaaa

#205000
1aaaaa
b100111 aaaac
b111011111111111100010 aaaad

#207500
0aaaaa

#210000
1aaaaa
b101000 aaaac
b111101111111111100001 aaaad

#212500
0aaaaa

#215000
1aaaaa
b101001 aaaac
b111111111111111100000 aaaad

#217500
0aaaaa

#220000
1aaaaa
b101010 aaaac
b1000001111111111011111 aaaad

#222500
0aaaaa

#225000
1aaaaa
b101011 aaaac
b1000011111111111011110 aaaad

#227500
0aaaaa

#230000
1aaaaa
b101100 aaaac
b1000101111111111011101 aaaad

#232500
0aaaaa

#235000
1aaaaa
b101101 aaaac
b1000111111111111011100 aaaad

#237500
0aaaaa

#240000
1aaaaa
b101110 aaaac
b1001001111111111011011 aaaad

#242500
0aaaaa

#245000
1aaaaa
b101111 aaaac
b1001011111111111011010 aaaad

#247500
0aaaaa

#250000
1aaaaa
b110000 aaaac
b1001101111111111011001 aaaad

#252500
0aaaaa

#255000
1aaaaa
b110001 aaaac
b1001111111111111011000 aaaad

#257500
0aaaaa

#260000
1aaaaa
b110010 aaaac
b1010001111111111010111 aaaad

#262500
0aaaaa

#265000
1aaaaa
b110011 aaaac
b1010011111111111010110 aaaad

#267500
0aaaaa

#270000
1aaaaa
b110100 aaaac
b1010101111111111010101 aaaad

#272500
0aaaaa

#275000
1aaaaa
b110101 aaaac
b1010111111111111010100 aaaad

#277500
0aaaaa

#280000
1aaaaa
b110110 aaaac
b1011001111111111010011 aaaad

#282500
0aaaaa

#285000
1aaaaa
b110111 aaaac
b1011011111111111010010 aaaad

#287500
0aaaaa

#290000
1aaaaa
b111000 aaaac
b1011101111111111010001 aaaad

#292500
0aaaaa

#295000
1aaaaa
b111001 aaaac
b1011111111111111010000 aaaad

#297500
0aaaaa

#300000
1aaaaa
b111010 aaaac
b1100001111111111001111 aaaad

#302500
0aaaaa

#305000
1aaaaa
b111011 aaaac
b1100011111111111001110 aaaad

#307500
0aaaaa

#310000
1aaaaa
b111100 aaaac
b1100101111111111001101 aaaad

#312500
0aaaaa

#315000
1aaaaa
b111101 aaaac
b1100111111111111001100 aaaad

#317500
0aaaaa

#320000
1aaaaa
b111110 aaaac
b1101001111111111001011 aaaad

#322500
0aaaaa

#325000
1aaaaa
b111111 aaaac
b1101011111111111001010 aaaad

#327500
0aaaaa

#330000
1aaaaa
b1000000 aaaac
b1101101111111111001001 aaaad

#332500
0aaaaa

#335000
1aaaaa
b0 aaaac
b1101111111111111001000 aaaad

#337500
0aaaaa

#340000
1aaaaa
b1101010010110011111000 aaaad

#342500
0aaaaa

#345000
1aaaaa
b1100100100101100011001 aaaad

#347500
0aaaaa

#350000
1aaaaa
b1011110101101000101011 aaaad

#352500
0aaaaa

#355000
1aaaaa
b1011000101101000101110 aaaad

#357500
0aaaaa

#360000
1aaaaa
b1010010100101100100010 aaaad

#362500
0aaaaa

#365000
1aaaaa
b1001100010110100000111 aaaad

#367500
0aaaaa

#370000
1aaaaa
b1000101111111111011101 aaaad

#372500
0aaaaa

#375000
1aaaaa
b111111100001110100100 aaaad

#377500
0aaaaa

#380000
1aaaaa
b111000111100001011100 aaaad

#382500
0aaaaa

#385000
1aaaaa
b110010001111000000101 aaaad

#387500
0aaaaa

#390000
1aaaaa
b101011011010010011111 aaaad

#392500
0aaaaa

#395000
1aaaaa
b100100011110000101010 aaaad

#397500
0aaaaa

#400000
1aaaaa
b11101011010010100110 aaaad

#402500
0aaaaa

#405000
1aaaaa
b10110001111000010011 aaaad

#407500
0aaaaa

#410000
1aaaaa
b1110111100001110001 aaaad

#412500
0aaaaa

#415000
1aaaaa
b111100001111000000 aaaad

#417500
0aaaaa

#420000
1aaaaa
b0 aaaad

